{
  "Comment.nvim": { "branch": "master", "commit": "176e85eeb63f1a5970d6b88f1725039d85ca0055" },
  "ansible-vim": { "branch": "master", "commit": "93798e8c89c441d29d4678da0c0d5e1429eb43b0" },
  "bufferline.nvim": { "branch": "main", "commit": "d24378edc14a675c820a303b4512af3bbc5761e9" },
  "cmp-buffer": { "branch": "main", "commit": "3022dbc9166796b644a841a02de8dd1cc1d311fa" },
  "cmp-cmdline": { "branch": "main", "commit": "8ee981b4a91f536f52add291594e89fb6645e451" },
  "cmp-nvim-lsp": { "branch": "main", "commit": "44b16d11215dce86f253ce0c30949813c0a90765" },
  "cmp-nvim-lua": { "branch": "main", "commit": "f12408bdb54c39c23e67cab726264c10db33ada8" },
  "cmp-path": { "branch": "main", "commit": "91ff86cd9c29299a64f968ebb45846c485725f23" },
  "cmp-vsnip": { "branch": "main", "commit": "989a8a73c44e926199bfd05fa7a516d51f2d2752" },
  "cmp_luasnip": { "branch": "master", "commit": "18095520391186d634a0045dacaa346291096566" },
  "dressing.nvim": { "branch": "master", "commit": "39611852fd7bbac117e939a26759bb37361f0c90" },
  "kanagawa.nvim": { "branch": "master", "commit": "1749cea392acb7d1548a946fcee1e6f1304cd3cb" },
  "lazy.nvim": { "branch": "main", "commit": "25beed5e2e935ebc00d7e3eed1dc502df3c40e39" },
  "leap.nvim": { "branch": "main", "commit": "7eeeb3ff74ff8cabd583a061492e76c1c6d2bac8" },
  "legendary.nvim": { "branch": "master", "commit": "3db15cae08d63bab40d0c38474e368f97414f090" },
  "lualine.nvim": { "branch": "master", "commit": "05d78e9fd0cdfb4545974a5aa14b1be95a86e9c9" },
  "luasnip": { "branch": "master", "commit": "0b4950a237ce441a6a3a947d501622453f6860ea" },
  "mason-lspconfig.nvim": { "branch": "main", "commit": "828a538ac8419f586c010996aefa5df6eb7c250b" },
  "mason.nvim": { "branch": "main", "commit": "5ad3e113b0c3fde3caba8630599373046f6197e8" },
  "noice.nvim": { "branch": "main", "commit": "dba8ac8e1239f541df1bba7d177eb09e51262ac4" },
  "nui.nvim": { "branch": "main", "commit": "d146966a423e60699b084eeb28489fe3b6427599" },
  "nvim-autopairs": { "branch": "master", "commit": "ae5b41ce880a6d850055e262d6dfebd362bb276e" },
  "nvim-cmp": { "branch": "main", "commit": "c4e491a87eeacf0408902c32f031d802c7eafce8" },
  "nvim-compe": { "branch": "master", "commit": "d186d739c54823e0b010feb205c6f97792322c08" },
  "nvim-dap": { "branch": "master", "commit": "d17d1bba23ec72a157bd183c57840c39e323f515" },
  "nvim-dap-python": { "branch": "master", "commit": "37b4cba02e337a95cb62ad1609b3d1dccb2e5d42" },
  "nvim-dap-ui": { "branch": "master", "commit": "85b16ac2309d85c88577cd8ee1733ce52be8227e" },
  "nvim-lspconfig": { "branch": "master", "commit": "447443a2404adc323ad2efc7c0a346a904ce694c" },
  "nvim-navic": { "branch": "master", "commit": "e6da6f74d89de65258ea7e98e22103ff5de6dcf5" },
  "nvim-notify": { "branch": "master", "commit": "ea9c8ce7a37f2238f934e087c255758659948e0f" },
  "nvim-surround": { "branch": "main", "commit": "10b20ca7d9da1ac8df8339e140ffef94f9ab3b18" },
  "nvim-tree.lua": { "branch": "master", "commit": "3b62c6bf2c3f2973036aed609d02fd0ca9c3af35" },
  "nvim-treesitter": { "branch": "master", "commit": "4115fad9fded72571bdc3e0f7351e64b31799a3d" },
  "nvim-web-devicons": { "branch": "master", "commit": "efbfed0567ef4bfac3ce630524a0f6c8451c5534" },
  "plenary.nvim": { "branch": "master", "commit": "267282a9ce242bbb0c5dc31445b6d353bed978bb" },
  "popup.nvim": { "branch": "master", "commit": "b7404d35d5d3548a82149238289fa71f7f6de4ac" },
  "telescope-file-browser.nvim": { "branch": "master", "commit": "e03ff55962417b69c85ef41424079bb0580546ba" },
  "telescope-repo.nvim": { "branch": "master", "commit": "d069994f0571366ca2a80f0fb464bb80fd63569d" },
  "telescope-ui-select.nvim": { "branch": "master", "commit": "62ea5e58c7bbe191297b983a9e7e89420f581369" },
  "telescope.nvim": { "branch": "master", "commit": "47c755d737702df7a39b640c8d9c473a728be1df" },
  "toggleterm.nvim": { "branch": "main", "commit": "00c13dccc78c09fa5da4c5edda990a363e75035e" },
  "vim-devicons": { "branch": "master", "commit": "71f239af28b7214eebb60d4ea5bd040291fb7e33" },
  "vim-rooter": { "branch": "master", "commit": "4f52ca556a0b9e257bf920658714470ea0320b7a" },
  "vim-vsnip": { "branch": "master", "commit": "7753ba9c10429c29d25abfd11b4c60b76718c438" },
  "vim-vsnip-integ": { "branch": "master", "commit": "1914e72cf3de70df7f5dde476cd299aba2440aef" }
}